…
    > # A tibble: 4 × 6
    >   hcpcs mue_uos mue_mai mue_mai_desc              mue_service_type mue_rationale
    >   <chr>   <int>   <int> <chr>                     <chr>            <chr>        
    > 1 33924       1       2 Date of Service Edit: Po… Practitioner     Code Descrip…
    > 2 33935       1       2 Date of Service Edit: Po… Practitioner     Anatomic Con…
    > 3 33924       1       2 Date of Service Edit: Po… Outpatient Hosp… Code Descrip…
    > 4 33935       1       2 Date of Service Edit: Po… Outpatient Hosp… Anatomic Con…

### Procedure-to-Procedure Edits

``` r
get_ptp_edits(hcpcs = c("33924", "33935"))
```

    > # A tibble: 21 × 6
    >    hcpcs ptp_type      ptp_complements   ptp_edit_mod ptp_edit_mod_desc
    >    <chr> <chr>         <list>                   <int> <chr>            
    >  1 33924 comprehensive <tibble [1 × 1]>             0 Not Allowed      
    >  2 33924 comprehensive <tibble [4 × 1]>             0 Not Allowed      
    >  3 33924 comprehensive <tibble [1 × 1]>             1 Allowed          
    >  4 33924 comprehensive <tibble [4 × 1]>             1 Allowed          
    >  5 33924 comprehensive <tibble [6 × 1]>             0 Not Allowed      
    >  6 33924 comprehensive <tibble [2 × 1]>             1 Allowed          
    >  7 33924 comprehensive <tibble [2 × 1]>             1 Allowed          
    >  8 33924 comprehensive <tibble [2 × 1]>             1 Allowed          
    >  9 33924 comprehensive <tibble [1 × 1]>             0 Not Allowed      
    > 10 33924 component     <tibble [1 × 1]>             0 Not Allowed      
    > 11 33935 comprehensive <tibble [27 × 1]>            0 Not Allowed      
    > 12 33935 comprehensive <tibble [50 × 1]>            1 Allowed          
    > 13 33935 comprehensive <tibble [63 × 1]>            1 Allowed          
    > 14 33935 comprehensive <tibble [67 × 1]>            1 Allowed          
    > 15 33935 comprehensive <tibble [13 × 1]>            0 Not Allowed      
    > 16 33935 comprehensive <tibble [1 × 1]>             1 Allowed          
    > 17 33935 comprehensive <tibble [2 × 1]>             0 Not Allowed      
    > 18 33935 comprehensive <tibble [2 × 1]>             0 Not Allowed      
    > 19 33935 comprehensive <tibble [11 × 1]>            0 Not Allowed      
    > 20 33935 comprehensive <tibble [24 × 1]>            0 Not Allowed      
    > # ℹ 1 more row
    > # ℹ 1 more variable: ptp_edit_rationale <chr>
…
