Procedure to Procedure (PTP) Edits — get_ptp_edits • northstar
…
Claim line edits allow use of NCCI PTP-associated Modifier 91 to bypass
them if one or more of the individual laboratory tests are repeated on the
same date of service.

The repeat testing must be medically reasonable and necessary and can’t be
performed to "confirm initial results; due to testing problems with specimens
and equipment or for any other reason when a normal, one-time, reportable
result is all that is required."
Procedure to Procedure (PTP) Edits

    Examples

get_ptp_edits(hcpcs = c("39503", "43116", "33935", "11646"))
#> # A tibble: 56 × 6
#>    hcpcs ptp_type      ptp_complements   ptp_edit_mod ptp_edit_mod_desc
#>    <chr> <chr>         <list>                   <int> <chr>            
#>  1 11646 comprehensive <tibble [1 × 1]>             0 Not Allowed      
#>  2 11646 comprehensive <tibble [25 × 1]>            0 Not Allowed      
#>  3 11646 comprehensive <tibble [46 × 1]>            1 Allowed          
#>  4 11646 comprehensive <tibble [24 × 1]>            1 Allowed          
#>  5 11646 comprehensive <tibble [63 × 1]>            1 Allowed          
#>  6 11646 comprehensive <tibble [4 × 1]>             1 Allowed          
#>  7 11646 comprehensive <tibble [11 × 1]>            0 Not Allowed      
#>  8 11646 comprehensive <tibble [26 × 1]>            0 Not Allowed      
#>  9 11646 comprehensive <tibble [1 × 1]>             1 Allowed          
#> 10 11646 comprehensive <tibble [3 × 1]>             0 Not Allowed      
#> 11 11646 component     <tibble [26 × 1]>            1 Allowed          
#> 12 11646 component     <tibble [9 × 1]>             1 Allowed          
#> 13 11646 component     <tibble [2 × 1]>             1 Allowed          
#> 14 11646 component     <tibble [3 × 1]>             1 Allowed          
#> 15 11646 component     <tibble [4 × 1]>             1 Allowed          
#> 16 11646 component     <tibble [1 × 1]>             1 Allowed          
#> 17 33935 comprehensive <tibble [27 × 1]>            0 Not Allowed      
#> 18 33935 comprehensive <tibble [50 × 1]>            1 Allowed          
#> 19 33935 comprehensive <tibble [63 × 1]>            1 Allowed          
#> 20 33935 comprehensive <tibble [67 × 1]>            1 Allowed          
#> # ℹ 36 more rows
#> # ℹ 1 more variable: ptp_edit_rationale <chr>
…
