NCCI Procedure to Procedure (PTP) Edits — search_ptp • northstar
…
    See also

    Other NCCI: 
search_aoc(),
search_mue()

    Examples

search_ptp(hcpcs_code = c("39503", "43116", "33935", "11646"))
#> # A tibble: 158 × 6
#>    hcpcs_code ptp_type      ptp_complements   ptp_deleted ptp_mod ptp_rationale 
#>    <chr>      <chr>         <list>            <date>        <int> <chr>         
#>  1 11646      Comprehensive <tibble [1 × 1]>  9999-12-31        0 Anesthesia se…
#>  2 11646      Comprehensive <tibble [1 × 1]>  2006-12-31        0 Anesthesia se…
#>  3 11646      Comprehensive <tibble [25 × 1]> 9999-12-31        0 Misuse of Col…
#>  4 11646      Comprehensive <tibble [2 × 1]>  2020-12-31        0 Standards of …
#>  5 11646      Comprehensive <tibble [46 × 1]> 9999-12-31        1 Standards of …
#>  6 11646      Comprehensive <tibble [24 × 1]> 9999-12-31        1 Misuse of Col…
#>  7 11646      Comprehensive <tibble [1 × 1]>  2018-12-31        1 CPT Manual or…
#>  8 11646      Comprehensive <tibble [63 × 1]> 9999-12-31        1 CPT Manual or…
#>  9 11646      Comprehensive <tibble [4 × 1]>  9999-12-31        1 Mutually excl…
#> 10 11646      Comprehensive <tibble [11 × 1]> 9999-12-31        0 CPT Manual or…
#> 11 11646      Comprehensive <tibble [1 × 1]>  2015-12-31        1 Misuse of Col…
#> 12 11646      Comprehensive <tibble [1 × 1]>  2016-01-01        9 Misuse of Col…
#> 13 11646      Comprehensive <tibble [2 × 1]>  2016-12-31        0 Standards of …
#> 14 11646      Comprehensive <tibble [5 × 1]>  2016-12-31        0 Misuse of Col…
#> 15 11646      Comprehensive <tibble [26 × 1]> 9999-12-31        0 Standards of …
#> 16 11646      Comprehensive <tibble [3 × 1]>  2019-12-31        0 Standards of …
#> 17 11646      Comprehensive <tibble [1 × 1]>  2015-12-31        0 Standards of …
#> 18 11646      Comprehensive <tibble [2 × 1]>  2009-12-31        0 Misuse of Col…
#> 19 11646      Comprehensive <tibble [1 × 1]>  2018-12-31        0 Standards of …
#> 20 11646      Comprehensive <tibble [1 × 1]>  2009-04-01        9 Standards of …
#> # ℹ 138 more rows
…
