NCCI Edits • northstar
…
      Source: vignettes/articles/ncci-edits.Rmd
      ncci-edits.Rmd

library(northstar)

Add-On Codes

search_addons()
#> # A tibble: 3,463 × 4
#>    hcpcs_code aoc_type aoc_complements  aoc_edit
#>    <chr>      <fct>    <list>              <int>
#>  1 00100      Primary  <tibble [1 × 1]>        1
#>  2 00102      Primary  <tibble [1 × 1]>        1
#>  3 00103      Primary  <tibble [1 × 1]>        1
#>  4 00104      Primary  <tibble [1 × 1]>        1
#>  5 00120      Primary  <tibble [1 × 1]>        1
#>  6 00124      Primary  <tibble [1 × 1]>        1
#>  7 00126      Primary  <tibble [1 × 1]>        1
#>  8 00140      Primary  <tibble [1 × 1]>        1
#>  9 00142      Primary  <tibble [1 × 1]>        1
#> 10 00144      Primary  <tibble [1 × 1]>        1
#> 11 00145      Primary  <tibble [1 × 1]>        1
#> 12 00147      Primary  <tibble [1 × 1]>        1
#> 13 00148      Primary  <tibble [1 × 1]>        1
#> 14 00160      Primary  <tibble [1 × 1]>        1
#> 15 00162      Primary  <tibble [1 × 1]>        1
#> 16 00164      Primary  <tibble [1 × 1]>        1
#> 17 00170      Primary  <tibble [1 × 1]>        1
#> 18 00172      Primary  <tibble [1 × 1]>        1
#> 19 00174      Primary  <tibble [1 × 1]>        1
#> 20 00176      Primary  <tibble [1 × 1]>        1
#> # ℹ 3,443 more rows

Medicallly Unlikely Edits

search_mues()
#> # A tibble: 14,677 × 5
#>    hcpcs_code mue_units mue_mai mue_rationale                     mue_service 
#>    <chr>          <int>   <int> <chr>                             <chr>       
#>  1 0001U              1       2 Code Descriptor / CPT Instruction Practitioner
#>  2 0002M              1       3 Nature of Analyte                 Practitioner
#>  3 0002U              1       2 Code Descriptor / CPT Instruction Practitioner
#>  4 0003M              1       3 Nature of Analyte                 Practitioner
#>  5 0003U              1       2 Code Descriptor / CPT Instruction Practitioner
#>  6 0004M              1       2 Code Descriptor / CPT Instruction Practitioner
#>  7 0005U              1       2 Code Descriptor / CPT Instruction Practitioner
#>  8 0006M              1       2 Code Descriptor / CPT Instruction Practitioner
#>  9 0007M              1       2 Code Descriptor / CPT Instruction Practitioner
#> 10 0007U              1       2 Code Descriptor / CPT Instruction Practitioner
#> 11 0008U              1       3 Nature of Analyte                 Practitioner
#> 12 0009U              2       3 Nature of Analyte                 Practitioner
#> 13 0010U              2       3 Nature of Service/Procedure       Practitioner
#> 14 0011M              1       2 Code Descriptor / CPT Instruction Practitioner
#> 15 0011U              1       2 Code Descriptor / CPT Instruction Practitioner
#> 16 0012M              1       2 Code Descriptor / CPT Instruction Practitioner
#> 17 0013M              1       2 Code Descriptor / CPT Instruction Practitioner
#> 18 0015M              1       2 Code Descriptor / CPT Instruction Practitioner
#> 19 0016M              2       3 Nature of Service/Procedure       Practitioner
#> 20 0016U              1       3 Nature of Analyte                 Practitioner
#> # ℹ 14,657 more rows

Procedure-to-Procedure Edits

search_ptps()
#> # A tibble: 95,057 × 6
#>    hcpcs ptp_type      ptp_complements    ptp_edit_mod ptp_edit_mod_desc
#>    <chr> <chr>         <list>                    <int> <chr>            
#>  1 0001U comprehensive <tibble [290 × 1]>            1 Allowed          
#>  2 0001U comprehensive <tibble [7 × 1]>              1 Allowed          
#>  3 0001U comprehensive <tibble [1 × 1]>              0 Not Allowed      
#>  4 0001U component     <tibble [2 × 1]>              0 Not Allowed      
#>  5 0002M comprehensive <tibble [7 × 1]>              0 Not Allowed      
#>  6 0002M comprehensive <tibble [4 × 1]>              1 Allowed          
#>  7 0002M comprehensive <tibble [3 × 1]>              1 Allowed          
#>  8 0002M comprehensive <tibble [7 × 1]>              0 Not Allowed      
#>  9 0002M component     <tibble [4 × 1]>              0 Not Allowed      
#> 10 0002U comprehensive <tibble [3 × 1]>              1 Allowed          
#> 11 0002U comprehensive <tibble [5 × 1]>              1 Allowed          
#> 12 0002U comprehensive <tibble [1 × 1]>              0 Not Allowed      
#> 13 0003M comprehensive <tibble [1 × 1]>              0 Not Allowed      
#> 14 0003M comprehensive <tibble [7 × 1]>              0 Not Allowed      
#> 15 0003M comprehensive <tibble [4 × 1]>              1 Allowed          
#> 16 0003M comprehensive <tibble [3 × 1]>              1 Allowed          
#> 17 0003M comprehensive <tibble [7 × 1]>              0 Not Allowed      
#> 18 0003M component     <tibble [2 × 1]>              0 Not Allowed      
#> 19 0003U comprehensive <tibble [5 × 1]>              0 Not Allowed      
#> 20 0003U comprehensive <tibble [4 × 1]>              1 Allowed          
#> # ℹ 95,037 more rows
#> # ℹ 1 more variable: ptp_edit_rationale <chr>
…
