Getting started • northstar
…
      Source: vignettes/northstar.Rmd
      northstar.Rmd

Load Example

x <- get_example()

x

#> # A tibble: 39,364 × 16
#>    claim_id dos        dor        dob        icd   order hcpcs units mod   pos  
#>    <glue>   <date>     <date>     <date>     <chr> <int> <chr> <int> <chr> <chr>
#>  1 30564-03 2022-08-09 NA         2007-11-05 F32.9     1 96101     1 NA    23   
#>  2 00068-01 2022-08-16 2022-08-17 1990-02-24 F43.…     1 90837     1 NA    02   
#>  3 00318-01 2022-08-16 2022-08-22 2012-10-24 F43.…     1 90832     1 NA    11   
#>  4 01908-01 2022-08-16 2022-09-12 1985-01-09 F43.…     1 90834     1 95    02   
#>  5 02295-01 2022-08-16 2022-08-16 1977-09-30 F43.…     1 90837     1 95    10   
#>  6 04305-01 2022-08-16 2022-08-16 2006-01-07 A69.…     1 90791     1 NA    11   
#>  7 04367-01 2022-08-16 2022-08-16 1980-07-24 F43.…     1 90791     1 AH    02   
#>  8 04367-01 2022-08-16 2022-08-16 1980-07-24 F43.…     2 96130     1 AH    02   
#>  9 04367-01 2022-08-16 2022-08-16 1980-07-24 F43.…     3 96131     1 AH    02   
#> 10 04367-01 2022-08-16 2022-08-16 1980-07-24 F43.…     4 96136     1 AH    02   
#> 11 04367-01 2022-08-16 2022-08-16 1980-07-24 F43.…     5 96137     3 AH    02   
#> 12 04386-01 2022-08-16 2022-08-22 2011-08-22 F90.2     1 90834     1 NA    11   
#> 13 05014-01 2022-08-16 2022-08-17 2003-09-09 F40.…     1 90837     1 NA    11   
#> 14 06641-01 2022-08-16 2022-08-16 1987-07-21 F43.…     1 90791     1 NA    11   
#> 15 06641-01 2022-08-16 2022-08-16 1987-07-21 F43.…     2 96130     1 NA    11   
#> 16 06641-01 2022-08-16 2022-08-16 1987-07-21 F43.…     3 96131     1 NA    11   
#> 17 06641-01 2022-08-16 2022-08-16 1987-07-21 F43.…     4 96136     1 NA    11   
#> 18 06641-01 2022-08-16 2022-08-16 1987-07-21 F43.…     5 96137     3 NA    11   
#> 19 07395-01 2022-08-16 2022-08-16 1994-11-18 F43.…     1 90837     1 NA    11   
#> 20 09495-01 2022-08-16 2022-08-17 1960-07-02 F44.4     1 90837     1 NA    10   
#> # ℹ 39,344 more rows
#> # ℹ 6 more variables: charges <dbl>, allowed <dbl>, payments <dbl>,
#> #   adjustments <dbl>, class <fct>, adj <chr>
…
Categorize HCPCS

search_descriptions(hcpcs_code = x$hcpcs)

#> # A tibble: 151 × 6
#>    hcpcs_code hcpcs_level hcpcs_category hcpcs_section hcpcs_desc_type
#>    <chr>      <fct>       <fct>          <fct>         <ord>          
#>  1 90791      I           I              Medicine      Short          
#>  2 90791      I           I              Medicine      Medical        
#>  3 90791      I           I              Medicine      Clinician      
#>  4 90792      I           I              Medicine      Short          
#>  5 90792      I           I              Medicine      Medical        
#>  6 90792      I           I              Medicine      Clinician      
#>  7 90832      I           I              Medicine      Short          
#>  8 90832      I           I              Medicine      Long           
#>  9 90832      I           I              Medicine      Medical        
#> 10 90832      I           I              Medicine      Clinician      
#> 11 90833      I           I              Medicine      Short          
#> 12 90833      I           I              Medicine      Long           
#> 13 90833      I           I              Medicine      Medical        
#> 14 90833      I           I              Medicine      Consumer       
#> 15 90833      I           I              Medicine      Clinician      
#> 16 90834      I           I              Medicine      Short          
#> 17 90834      I           I              Medicine      Long           
#> 18 90834      I           I              Medicine      Medical        
#> 19 90834      I           I              Medicine      Clinician      
#> 20 90836      I           I              Medicine      Short          
#> # ℹ 131 more rows
#> # ℹ 1 more variable: hcpcs_description <chr>

search_rbcs(hcpcs_code = x$hcpcs)

#> # A tibble: 34 × 8
#>    hcpcs_code rbcs_procedure rbcs_category rbcs_subcategory          rbcs_family
#>    <chr>      <fct>          <fct>         <chr>                     <chr>      
#>  1 90791      Non-Procedure  E&M           Behavioral Health Servic… Psychother…
#>  2 90792      Non-Procedure  E&M           Behavioral Health Servic… Psychother…
#>  3 90832      Non-Procedure  E&M           Behavioral Health Servic… Psychother…
#>  4 90833      Non-Procedure  E&M           Behavioral Health Servic… Psychother…
#>  5 90834      Non-Procedure  E&M           Behavioral Health Servic… Psychother…
#>  6 90836      Non-Procedure  E&M           Behavioral Health Servic… Psychother…
#>  7 90837      Non-Procedure  E&M           Behavioral Health Servic… Psychother…
#>  8 90839      Non-Procedure  E&M           Behavioral Health Servic… Psychother…
#>  9 90840      Non-Procedure  E&M           Behavioral Health Servic… Psychother…
#> 10 90846      Non-Procedure  E&M           Behavioral Health Servic… Psychother…
#> 11 90847      Non-Procedure  E&M           Behavioral Health Servic… Psychother…
#> 12 90853      Non-Procedure  E&M           Behavioral Health Servic… Psychother…
#> 13 96101      Non-Procedure  E&M           Behavioral Health Servic… No RBCS Fa…
#> 14 96116      Non-Procedure  E&M           Behavioral Health Servic… No RBCS Fa…
#> 15 96121      Non-Procedure  E&M           Behavioral Health Servic… No RBCS Fa…
#> 16 96130      Non-Procedure  E&M           Behavioral Health Servic… No RBCS Fa…
#> 17 96131      Non-Procedure  E&M           Behavioral Health Servic… No RBCS Fa…
#> 18 96132      Non-Procedure  E&M           Behavioral Health Servic… No RBCS Fa…
#> 19 96133      Non-Procedure  E&M           Behavioral Health Servic… No RBCS Fa…
#> 20 96136      Non-Procedure  E&M           Behavioral Health Servic… No RBCS Fa…
#> # ℹ 14 more rows
#> # ℹ 3 more variables: hcpcs_date_added <date>, hcpcs_date_ended <date>,
#> #   rbcs_date_effective <date>
…
